;0;1;W_S
2M20570502+3734207;-1468.197265625;902.0322265625;0.0
2M10491389+1426000;-1068.79638671875;1125.829833984375;0.5666666666666667
2M13243840-0033426;-1380.41455078125;1213.6619873046875;0.30833333333333335
2M03535242-1021125;-1156.5810546875;814.1998291015625;0.43333333333333335
