aspcapStar-r8-l31c.1-2M17431297-2921015.fits
aspcapStar-r8-l31c.1-2M17431462-2937499.fits
aspcapStar-r8-l31c.1-2M17431543-2924587.fits
aspcapStar-r8-l31c.1-2M17432817-2917418.fits
aspcapStar-r8-l31c.1-2M17434414-2938256.fits
aspcapStar-r8-l31c.1-2M17443011-2901143.fits
aspcapStar-r8-l31c.1-2M17443034-2907155.fits
aspcapStar-r8-l31c.1-2M17443172-2917117.fits
aspcapStar-r8-l31c.1-2M17443432-2910385.fits
aspcapStar-r8-l31c.1-2M17443562-2913057.fits
aspcapStar-r8-l31c.1-2M17443634-2909250.fits
aspcapStar-r8-l31c.1-2M17444946-2903159.fits
aspcapStar-r8-l31c.1-2M17445025-2919215.fits
aspcapStar-r8-l31c.1-2M17445261-2914110.fits
aspcapStar-r8-l31c.1-2M17445415-2913448.fits
aspcapStar-r8-l31c.1-2M17445546-2901433.fits
aspcapStar-r8-l31c.1-2M17445959-2911152.fits
aspcapStar-r8-l31c.1-2M17450097-2901149.fits
aspcapStar-r8-l31c.1-2M17450170-2902498.fits
aspcapStar-r8-l31c.1-2M17450596-2857483.fits
aspcapStar-r8-l31c.1-2M17450697-2903349.fits
aspcapStar-r8-l31c.1-2M17450714-2850268.fits
aspcapStar-r8-l31c.1-2M17451074-2907117.fits
aspcapStar-r8-l31c.1-2M17451209-2904248.fits
aspcapStar-r8-l31c.1-2M17451222-2904260.fits
aspcapStar-r8-l31c.1-2M17451340-2903359.fits
aspcapStar-r8-l31c.1-2M17451348-2905266.fits
aspcapStar-r8-l31c.1-2M17451785-2909178.fits
aspcapStar-r8-l31c.1-2M17451937-2914052.fits
aspcapStar-r8-l31c.1-2M17451996-2904322.fits
aspcapStar-r8-l31c.1-2M17452082-2913424.fits
aspcapStar-r8-l31c.1-2M17452187-2913443.fits
aspcapStar-r8-l31c.1-2M17452279-2859326.fits
aspcapStar-r8-l31c.1-2M17452281-2907470.fits
aspcapStar-r8-l31c.1-2M17453194-2857473.fits
aspcapStar-r8-l31c.1-2M17453296-2845434.fits
aspcapStar-r8-l31c.1-2M17453852-2856060.fits
aspcapStar-r8-l31c.1-2M17454325-2848215.fits
aspcapStar-r8-l31c.1-2M17454533-2853460.fits
aspcapStar-r8-l31c.1-2M17454661-2843334.fits
aspcapStar-r8-l31c.1-2M17455544-2850109.fits
aspcapStar-r8-l31c.1-2M17455625-2851092.fits
aspcapStar-r8-l31c.1-2M17455675-2906308.fits
aspcapStar-r8-l31c.1-2M17455706-2855584.fits
aspcapStar-r8-l31c.1-2M17455743-2846306.fits
aspcapStar-r8-l31c.1-2M17455874-2843463.fits
aspcapStar-r8-l31c.1-2M17460025-2850117.fits
aspcapStar-r8-l31c.1-2M17460160-2850006.fits
aspcapStar-r8-l31c.1-2M17460808-2848491.fits
aspcapStar-r8-l31c.1-2M17461037-2900433.fits
aspcapStar-r8-l31c.1-2M17461190-2852559.fits
aspcapStar-r8-l31c.1-2M17461251-2848489.fits
aspcapStar-r8-l31c.1-2M17461373-2855142.fits
aspcapStar-r8-l31c.1-2M17461496-2844173.fits
aspcapStar-r8-l31c.1-2M17461514-2849284.fits
aspcapStar-r8-l31c.1-2M17461704-2900058.fits
aspcapStar-r8-l31c.1-2M17461750-2848122.fits
aspcapStar-r8-l31c.1-2M17461905-2855198.fits
aspcapStar-r8-l31c.1-2M17462329-2847063.fits
aspcapStar-r8-l31c.1-2M17462584-2850001.fits
aspcapStar-r8-l31c.1-2M17462870-2853194.fits
aspcapStar-r8-l31c.1-2M17463122-2839486.fits
aspcapStar-r8-l31c.1-2M17463245-2857529.fits
aspcapStar-r8-l31c.1-2M18300408+0416050.fits
aspcapStar-r8-l31c.1-2M20553607+5613011.fits
aspcapStar-r8-l31c.1-2M21031081+5414127.fits
aspcapStar-r8-l31c.1-2M21084459+5442122.fits
aspcapStar-r8-l31c.1-2M21590597+4539010.fits
aspcapStar-r8-l31c.1-2M21523909+5417503.fits
aspcapStar-r8-l31c.1-2M21594113+5351121.fits
aspcapStar-r8-l31c.1-2M21554492+5414593.fits
aspcapStar-r8-l31c.1-2M21573025+5440529.fits
aspcapStar-r8-l31c.1-2M22085910+5434192.fits
aspcapStar-r8-l31c.1-2M00274110+6938515.fits
aspcapStar-r8-l31c.1-2M00334926+6837330.fits
aspcapStar-r8-l31c.1-2M00241903+5652559.fits
aspcapStar-r8-l31c.1-2M00373109+5743345.fits
aspcapStar-r8-l31c.1-2M00261363+5742167.fits
aspcapStar-r8-l31c.1-2M03395727+6227241.fits
aspcapStar-r8-l31c.1-2M03362922+6214173.fits
aspcapStar-r8-l31c.1-2M03330010+6330443.fits
aspcapStar-r8-l31c.1-2M03244820+6300289.fits
aspcapStar-r8-l31c.1-2M03271166+6240211.fits
aspcapStar-r8-l31c.1-2M04221410+5958479.fits
aspcapStar-r8-l31c.1-2M03103113+4831002.fits
aspcapStar-r8-l31c.1-2M03221451+4756591.fits
aspcapStar-r8-l31c.1-2M04275773+4058298.fits
aspcapStar-r8-l31c.1-2M04174731+4211335.fits
aspcapStar-r8-l31c.1-2M05522651+4329557.fits
aspcapStar-r8-l31c.1-2M05152962+2400147.fits
aspcapStar-r8-l31c.1-2M06393827+2403560.fits
aspcapStar-r8-l31c.1-2M06561152-0200429.fits
aspcapStar-r8-l31c.1-2M06531594-0439506.fits
aspcapStar-r8-l31c.1-2M05232902+2339225.fits
aspcapStar-r8-l31c.1-2M20565341+3725105.fits
aspcapStar-r8-l31c.1-2M20543760+5605337.fits
aspcapStar-r8-l31c.1-2M21021878+3641412.fits
aspcapStar-r8-l31c.1-2M21563295+4736128.fits
aspcapStar-r8-l31c.1-2M05075028+4824094.fits
aspcapStar-r8-l31c.1-2M06512784-0122158.fits
aspcapStar-r8-l31c.1-2M06553181-0217283.fits
aspcapStar-r8-l31c.1-2M05405705+1014249.fits
aspcapStar-r8-l31c.1-2M05365506+0854087.fits
aspcapStar-r8-l31c.1-2M15183614+0204162.fits
aspcapStar-r8-l31c.1-2M17443011-2901143.fits
aspcapStar-r8-l31c.1-2M17443432-2910385.fits
aspcapStar-r8-l31c.1-2M17445415-2913448.fits
aspcapStar-r8-l31c.1-2M17445683-2913255.fits
aspcapStar-r8-l31c.1-2M17450697-2903349.fits
aspcapStar-r8-l31c.1-2M17451937-2914052.fits
aspcapStar-r8-l31c.1-2M17460025-2850117.fits
aspcapStar-r8-l31c.1-2M17460160-2850006.fits
aspcapStar-r8-l31c.1-2M17461496-2844173.fits
aspcapStar-r8-l31c.1-2M17462584-2850001.fits
aspcapStar-r8-l31c.1-2M17462870-2853194.fits
aspcapStar-r8-l31c.1-2M17463122-2839486.fits
aspcapStar-r8-l31c.1-2M17434496-2941008.fits
aspcapStar-r8-l31c.1-2M18072061-2517190.fits
aspcapStar-r8-l31c.1-2M18072061-2517190.fits